<?xml version="1.0" encoding="UTF-8"?>
<svg xmlns="http://www.w3.org/2000/svg" xmlns:xlink="http://www.w3.org/1999/xlink" width="304px" height="304px" viewBox="0 0 304 304" version="1.1">
    <title>Oval</title>
    <g id="Page-1" stroke="none" stroke-width="1" fill="none" fill-rule="evenodd">
        <g id="Artboard" transform="translate(-140.000000, -145.000000)" fill="#FFFFFF" stroke="#000000" stroke-width="4">
            <circle id="Oval" cx="292" cy="297" r="150"/>
        </g>
    </g>
</svg>
